*,KITS_BB-_0,KITS,BB-FR1,AFB160,,IP,No
---SCHED,09:00,23:00,10
*,KITS_BB-_0,KITS,BB-FR2,MT940,,IP,Yes
---SCHED,09:00,23:00,10
-----IP,FTPS,by-ws-35,21,admin,1,\KITS\test,,,,Delete
*,KITS_BB-_0,KITS,BB-FR3,mt101,,IP,No
---SCHED,09:00,23:00,10
-----IP,SFTP,by-d-comm1,22,anonymous,12345678,\KITS\SFTP,,,,Delete
*,KITS_BB-_0,KITS,BB-FR4,swiftnetfin,,IP,No
---SCHED,09:00,23:00,10
-----IP,SFTP,by-d-comm1,22,anonymous,12345678,\KITS\SFTP1,,,,Delete
*,KITS_BB-_0,KITS,BB-FR5,AFB161,,IP,No
---SCHED,09:00,23:00,10
-----IP,FTP,by-d-comm1,21,anonymous,12345678,\KITS\test,,,,Delete
*,KITS_T&#_0,KITS,T&#209;&#165,AFB162,,IP,No
---SCHED,09:00,23:00,10
