LO10,AFB120,00
LO27,OC240,21
LO23,OC240,23
LO24,OC240,20
LO22,OC240,81
LO83,OC240,83
LO17,OC240,60
LO20,OC240,61
LOM1,MT940,00
LOC1,AFB120,00
LOC2,AFB320,00
DRDB,DIRDEB,00
VT16,VT160,00
VO16,VO160,00
VD32,VD320,00
ED82,EDI820,00
KITS,EDI820,00
STANDARD_RECEIVABLE,STANDARD_RECEIVABLE,19
STANDARD_BID_ELECTION,STANDARD_BID_ELECTION,19