Client,"Bank""""","Format""""","Protocol""""","URL""""","Port""""","User""""","Passwd""""","DIR""""","RemoteName""""","Mode""""","Encryption Tool"""""," """"GPG userID receiver"""""," """"GPG userID signatory""""","Certificat CA file""""","Certificat file"""""""
5MPE,INTERNAL,REPORT,FTP,by-d-comm1,21,anonymous,1,./5MPE/out,%s.cs71d,ASCII,,,,,
AFR,INTERNAL,EXPORT,FTP,by-t-comm2,21,anonymous,1,./AFR/out,%s.cs71d,ASCII,,,,,
APE,B30DEFRK,MT101,FTP,by-d-comm1,21,anonymous,1,./APE/out,%s.cs71d,ASCII,,,,,
AVA,INTERNAL,REPORT,FTP,by-d-comm1,21,anonymous,1,./AVA/out,%s.cs71d,ASCII,,,,,
DYU,,,FTP,by-d-comm1,21,anonymous,1,./DYU/out,%s.cs71d,ASCII,,,,,
EMA,BB-FR,AFB160,FTP,by-t-comm2,21,anonymous,1,./EMA/out,%s.cs71d,ASCII,MULTI,,,,
EPR,BB-FR1,AFB160,INTERNAL,by-d-comm1,21,anonymous,1,./CHU,%s.cs71d,ASCII,MULTI,,,,
EPR,BB-FR1,AFB160,INTERNAL,by-d-comm1,21,anonymous,1,./chu,%s.cs71d,ASCII,MULTI,,,,
ICH,B1US-1FR,AFB160,FTP,by-d-comm1,21,anonymous,1,./ICH/out,%s.cs71d,ASCII,,,,,
IER,INTERNAL,REPORT,FTP,by-d-comm1,21,anonymous,1,./IER/out,%s.cs71d,ASCII,,,,,
INE,B1-BRANCH1,AFB160,FTP,by-d-comm1,21,anonymous,1,./INE/out,%s.cs71d,ASCII,,,,,
INE,*,*,DOWNLOAD,by-t-comm2,21,anonymous,1,./INE/out,%s.cs71d,ASCII,,,,,
INE,B1-BRANCH1,AFB160AR,FTP,by-d-comm1,21,anonymous,1,./INE/out,%s.cs71d,ASCII,,,,,
INE,B1-BRANCH1,PYBULK_ACKOUT,FTP,by-d-comm1,21,anonymous,1,./INE/out,%s.cs71d,ASCII,,,,,
INE,B1-FRANCE,AFB160,FTP,by-d-comm1,21,anonymous,1,./INE/out,%s.cs71d,ASCII,,,,,
INE,INTERNAL,PAYMFW,FTP,by-d-comm1,21,anonymous,1,./INE/out,%s.cs71d,ASCII,,,,,
INE1,B1-FRANCE,AFB160,FTP,by-d-comm1,21,anonymous,1,./INE1/out,%s.cs71d,ASCII,,,,,
INE1,B2-FRANCE,AFB160,FTP,by-d-comm1,21,anonymous,1,./INE1/out,%s.cs71d,ASCII,,,,,
INE_CH,B1CHINA_IC,MT101,FTP,by-d-comm1,21,anonymous,1,./INE_CH/out,%s.cs71d,ASCII,,,,,
INE_CH,B1CHINA_IC,PYBULK_ACKOUT,FTP,by-d-comm1,21,anonymous,1,./INE_CH/out,%s.cs71d,ASCII,,,,,
KDR,*,CODA21,FTP,by-d-comm1,21,anonymous,1,./KDR/out,%s.cs71d,ASCII,,,,,
KDR,*,GLEXPORT,FTP,by-d-comm1,21,anonymous,1,./KDR/out,%s.cs71d,ASCII,,,,,
KDR,,,FTP,by-d-comm1,21,anonymous,1,./KDR/out,%s.cs71d,ASCII,,,,,
KDR,BB-CH1,*,FTP,by-ws-20,21,KDR,12345678,./KDR/OUT,%s.cs71d,ASCII,,,,,
KDR,BB-DE1,DIRDEB,FTX,by-d-comm1,21,anonymous,1,./KDR/out2,%s.cs71d,ASCII,,,,,
KDR,BB-FR1,AFB160,FTP,by-d-comm1,21,anonymous,1,./KDR/out,%s.cs71d,ASCII,,,,,
KDR,BB-FR1,MT101,FTP,by-d-comm1,21,anonymous,1,./KDR/out,%s.cs71d,ASCII,,,,,
KDR,BB-FR2,,INTERNAL,by-d-comm1,21,anonymous,1,./CHU,%s.cs71d,ASCII,MULTI,,,,
KDR,BB-FR3,,FTP,by-d-comm1,21,anonymous,1,./KDR/out,%s.cs71d,ASCII,,,,,
KDR,BB-IT1,,FTP,by-d-comm1,21,anonymous,1,./KDR/out,%s.cs71d,ASCII-ACTIVE,,,,,
NPD,BB3,AFB160AR,FTP,by-d-comm1,21,anonymous,1,./NPD/out,%s.cs71d,ASCII,,,,,
NPI,BRANCH4,AFB160,DOWNLOAD,by-d-comm1,21,anonymous,1,./NPI/out/chu,%s.mytestt,ASCII,,,,,
OGA,B10FRPRS,AFB320,DOWNLOAD,by-d-comm1,21,anonymous,1,./OGA/out,%s.cs71d,ASCII,,,,,
OGA,B10FRPRS,AFB320,FTP,by-d-comm1,21,anonymous,1,./OGA/out,%s.cs71d,ASCII,,,,,
OGA,INTERNAL,PAYMFW,FTP,by-d-comm1,21,anonymous,1,./OGA/out,%s.cs71d,ASCII,,,,,
OGA,TEMP,AFB240AP,FTP,by-d-comm1,21,anonymous,1,./OGA/out,%s.cs71d,ASCII,,,,,
OGI,,,FTP,by-d-comm1,21,anonymous,1,./OGI/out,%s.cs71d,ASCII,,,,,
OGI_CH,,,FTP,by-d-comm1,21,anonymous,1,./OGI_CH/out,%s.cs71d,ASCII,,,,,
OGI电,,,FTP,by-d-comm1,21,anonymous,1,./OGI电/out,%s.cs71d,ASCII,,,,,
OMA,,,,by-d-comm1,21,anonymous,1,./OMA/out,%s.cs71d,ASCII,,,,,
OSH,*,FORMAT,FTP,by-d-comm1,21,anonymous,1,./OSH/out,%s.cs71d,ASCII,,,,,
OSH,INTERNAL,REPORT,FTP,by-d-comm1,21,anonymous,1,./OSH/out,%s.cs71d,ASCII,,,,,
TRU,BKBRANCH01,MT101,FTP,by-d-comm1,21,anonymous,1,./TRU/out,%s.cs71d,ASCII,,,,,
TRU,INTERNAL,REPORT,FTP,by-d-comm1,21,anonymous,1,./TRU/out,%s.cs71d,ASCII,,,,,
TVO,BB-IT1,XMLPAIN,FTPS,by-ws-35,21,admin,1,./TVO/out,%s.cs80d,ASCII,,,,,
#<>&*$£,BB-FR2,AFB320,FTP,by-t-comm2,21,anonymous,1,./KITS/out,%s.cs71d,ASCII,,,,,
AST, ,AFB320,FTP,by-d-comm1,21,anonymous,1,./KITS/out,%s.cs71d,ASCII,,,,,
AST,BB-FR1,AFB160,FTP,by-d-comm1,21,anonymous,1,./KITS/out,%s.cs71d,ASCII,MULTI,,,,
AST,BB-FR1,AFB160,FTP,by-d-comm1,21,anonymous,1,./KITS/out1,%s.cs71d,ASCII,MULTI,,,,
AST,BB-FR1,AFB160,FTP,by-d-comm1,21,anonymous,1,./KITS/out2,%s.cs71d,ASCII,MULTI,,,,
AST,BB-FR1,AFB330,FTP,by-d-comm1,21,anonymous,1,./KITS/out,%s.cs71d,ASCII,,,,,
AST,BB-FR1,PYBULK_ACKOUT,FTP,by-d-comm1,21,anonymous,1,./KITS/out,%s.cs71d,ASCII,,,,,
AST,FR,PYBULK_ACKOUT,FTP,by-d-comm1,21,anonymous,1,./KITS/out,%s.cs71d,ASCII,,,,,
#<>&*$£,BB-FR2,AFB320,FTP,by-t-comm2,21,anonymous,1,./KITS/out,%s.cs71d,ASCII,,,,,
AST,B您好B-FR2,AFB320,FTP,by-t-comm2,21,anonymous,1,./KITS/out,%s.cs71d,ASCII,,,,,
AST,BB-FR2,AFB160,FTP,by-t-comm2,21,anonymous,1,./KITS/out,%s.cs71d,ASCII,,,,,
AST,BB-FR2,AFB360,FTP,by-d-comm1,21,anonymous,1,./KITS/out,%s.cs71d,ASCII,MULTI:KITS,,,,
AST,BB-FR2,AFB360,FTP,by-d-comm1,21,anonymous,1,./KITS/out1,%s.cs71d,ASCII,MULTI:KITS,,,,
AST,BB-FR2,AFB360,FTP,by-d-comm1,21,anonymous,1,./KITS/out2,%s.cs71d,ASCII,MULTI:KITS,,,,
AST,BB-FR2,AFB360,FTP,by-d-comm1,21,anonymous,1,./KITS/out,%s.%YYYYMMDD.cs71d,ASCII,,,,,
AST,BB-US1,NACHA,FTP,by-d-comm1,21,anonymous,1,./KITS/out,%s.cs71d,ASCII,,,,,
AST,BB-US2,NACHA,FTP,by-d-comm1,21,anonymous,1,./KITS/out,%s.cs71d,ASCII,,,,,
AST,BB-US3,NACHA,FTP,by-d-comm1,21,anonymous,1,./KITS/out,%s.cs71d,ASCII,,,,,
AST,INTERNAL,REPORT,FTP,by-d-comm1,21,anonymous,1,./KITS/out,%s.cs71d,ASCII,,,,,
INTEGRATION, ,AFB320,FTP,by-d-comm1,21,anonymous,1,./KITS/out,%s.cs71d,ASCII,,,,,
INTEGRATION,BB-FR1,AFB160,FTP,by-d-comm1,21,anonymous,1,./KITS/out,%s.cs71d,ASCII,MULTI,,,,
INTEGRATION,BB-FR1,AFB160,FTP,by-d-comm1,21,anonymous,1,./KITS/out1,%s.cs71d,ASCII,MULTI,,,,
INTEGRATION,BB-FR1,AFB160,FTP,by-d-comm1,21,anonymous,1,./KITS/out2,%s.cs71d,ASCII,MULTI,,,,
INTEGRATION,BB-FR1,AFB330,FTP,by-d-comm1,21,anonymous,1,./KITS/out,%s.cs71d,ASCII,,,,,
INTEGRATION,BB-FR1,PYBULK_ACKOUT,FTP,by-d-comm1,21,anonymous,1,./KITS/out,%s.cs71d,ASCII,,,,,
INTEGRATION,FR,PYBULK_ACKOUT,FTP,by-d-comm1,21,anonymous,1,./KITS/out,%s.cs71d,ASCII,,,,,
#<>&*$£,BB-FR2,AFB320,FTP,by-t-comm2,21,anonymous,1,./KITS/out,%s.cs71d,ASCII,,,,,
INTEGRATION,B您好B-FR2,AFB320,FTP,by-t-comm2,21,anonymous,1,./KITS/out,%s.cs71d,ASCII,,,,,
INTEGRATION,BB-FR2,AFB160,FTP,by-t-comm2,21,anonymous,1,./KITS/out,%s.cs71d,ASCII,,,,,
INTEGRATION,BB-FR2,AFB360,FTP,by-d-comm1,21,anonymous,1,./KITS/out,%s.cs71d,ASCII,MULTI:KITS,,,,
INTEGRATION,BB-FR2,AFB360,FTP,by-d-comm1,21,anonymous,1,./KITS/out1,%s.cs71d,ASCII,MULTI:KITS,,,,
INTEGRATION,BB-FR2,AFB360,FTP,by-d-comm1,21,anonymous,1,./KITS/out2,%s.cs71d,ASCII,MULTI:KITS,,,,
INTEGRATION,BB-FR2,AFB360,FTP,by-d-comm1,21,anonymous,1,./KITS/out,%s.%YYYYMMDD.cs71d,ASCII,,,,,
INTEGRATION,BB-US1,NACHA,FTP,by-d-comm1,21,anonymous,1,./KITS/out,%s.cs71d,ASCII,,,,,
INTEGRATION,BB-US2,NACHA,FTP,by-d-comm1,21,anonymous,1,./KITS/out,%s.cs71d,ASCII,,,,,
INTEGRATION,BB-US3,NACHA,FTP,by-d-comm1,21,anonymous,1,./KITS/out,%s.cs71d,ASCII,,,,,
INTEGRATION,INTERNAL,REPORT,FTP,by-d-comm1,21,anonymous,1,./KITS/out,%s.cs71d,ASCII,,,,,
FAKITS, ,AFB320,FTP,by-d-comm1,21,anonymous,1,./KITS/out,%s.cs71d,ASCII,,,,,
FAKITS,BB-FR1,AFB160,FTP,by-d-comm1,21,anonymous,1,./KITS/out,%s.cs71d,ASCII,MULTI,,,,
FAKITS,BB-FR1,AFB160,FTP,by-d-comm1,21,anonymous,1,./KITS/out1,%s.cs71d,ASCII,MULTI,,,,
FAKITS,BB-FR1,AFB160,FTP,by-d-comm1,21,anonymous,1,./KITS/out2,%s.cs71d,ASCII,MULTI,,,,
FAKITS,BB-FR1,AFB330,FTP,by-d-comm1,21,anonymous,1,./KITS/out,%s.cs71d,ASCII,,,,,
FAKITS,BB-FR1,PYBULK_ACKOUT,FTP,by-d-comm1,21,anonymous,1,./KITS/out,%s.cs71d,ASCII,,,,,
FAKITS,FR,PYBULK_ACKOUT,FTP,by-d-comm1,21,anonymous,1,./KITS/out,%s.cs71d,ASCII,,,,,
#<>&*$£,BB-FR2,AFB320,FTP,by-t-comm2,21,anonymous,1,./KITS/out,%s.cs71d,ASCII,,,,,
FAKITS,B您好B-FR2,AFB320,FTP,by-t-comm2,21,anonymous,1,./KITS/out,%s.cs71d,ASCII,,,,,
FAKITS,BB-FR2,AFB160,FTP,by-t-comm2,21,anonymous,1,./KITS/out,%s.cs71d,ASCII,,,,,
FAKITS,BB-FR2,AFB360,FTP,by-d-comm1,21,anonymous,1,./KITS/out,%s.cs71d,ASCII,MULTI:KITS,,,,
FAKITS,BB-FR2,AFB360,FTP,by-d-comm1,21,anonymous,1,./KITS/out1,%s.cs71d,ASCII,MULTI:KITS,,,,
FAKITS,BB-FR2,AFB360,FTP,by-d-comm1,21,anonymous,1,./KITS/out2,%s.cs71d,ASCII,MULTI:KITS,,,,
FAKITS,BB-FR2,AFB360,FTP,by-d-comm1,21,anonymous,1,./KITS/out,%s.%YYYYMMDD.cs71d,ASCII,,,,,
FAKITS,BB-US1,NACHA,FTP,by-d-comm1,21,anonymous,1,./KITS/out,%s.cs71d,ASCII,,,,,
FAKITS,BB-US2,NACHA,FTP,by-d-comm1,21,anonymous,1,./KITS/out,%s.cs71d,ASCII,,,,,
FAKITS,BB-US3,NACHA,FTP,by-d-comm1,21,anonymous,1,./KITS/out,%s.cs71d,ASCII,,,,,
FAKITS,INTERNAL,REPORT,FTP,by-d-comm1,21,anonymous,1,./KITS/out,%s.cs71d,ASCII,,,,,
FASMOKE, ,AFB320,FTP,by-d-comm1,21,anonymous,1,./KITS/out,%s.cs71d,ASCII,,,,,
FASMOKE,BB-FR1,AFB160,FTP,by-d-comm1,21,anonymous,1,./KITS/out,%s.cs71d,ASCII,MULTI,,,,
FASMOKE,BB-FR1,AFB160,FTP,by-d-comm1,21,anonymous,1,./KITS/out1,%s.cs71d,ASCII,MULTI,,,,
FASMOKE,BB-FR1,AFB160,FTP,by-d-comm1,21,anonymous,1,./KITS/out2,%s.cs71d,ASCII,MULTI,,,,
FASMOKE,BB-FR1,AFB330,FTP,by-d-comm1,21,anonymous,1,./KITS/out,%s.cs71d,ASCII,,,,,
FASMOKE,BB-FR1,PYBULK_ACKOUT,FTP,by-d-comm1,21,anonymous,1,./KITS/out,%s.cs71d,ASCII,,,,,
FASMOKE,FR,PYBULK_ACKOUT,FTP,by-d-comm1,21,anonymous,1,./KITS/out,%s.cs71d,ASCII,,,,,
#<>&*$£,BB-FR2,AFB320,FTP,by-t-comm2,21,anonymous,1,./KITS/out,%s.cs71d,ASCII,,,,,
FASMOKE,B您好B-FR2,AFB320,FTP,by-t-comm2,21,anonymous,1,./KITS/out,%s.cs71d,ASCII,,,,,
FASMOKE,BB-FR2,AFB160,FTP,by-t-comm2,21,anonymous,1,./KITS/out,%s.cs71d,ASCII,,,,,
FASMOKE,BB-FR2,AFB360,FTP,by-d-comm1,21,anonymous,1,./KITS/out,%s.cs71d,ASCII,MULTI:KITS,,,,
FASMOKE,BB-FR2,AFB360,FTP,by-d-comm1,21,anonymous,1,./KITS/out1,%s.cs71d,ASCII,MULTI:KITS,,,,
FASMOKE,BB-FR2,AFB360,FTP,by-d-comm1,21,anonymous,1,./KITS/out2,%s.cs71d,ASCII,MULTI:KITS,,,,
FASMOKE,BB-FR2,AFB360,FTP,by-d-comm1,21,anonymous,1,./KITS/out,%s.%YYYYMMDD.cs71d,ASCII,,,,,
FASMOKE,BB-US1,NACHA,FTP,by-d-comm1,21,anonymous,1,./KITS/out,%s.cs71d,ASCII,,,,,
FASMOKE,BB-US2,NACHA,FTP,by-d-comm1,21,anonymous,1,./KITS/out,%s.cs71d,ASCII,,,,,
FASMOKE,BB-US3,NACHA,FTP,by-d-comm1,21,anonymous,1,./KITS/out,%s.cs71d,ASCII,,,,,
FASMOKE,INTERNAL,REPORT,FTP,by-d-comm1,21,anonymous,1,./KITS/out,%s.cs71d,ASCII,,,,,
BERMUDA, ,AFB320,FTP,by-d-comm1,21,anonymous,1,./KITS/out,%s.cs71d,ASCII,,,,,
BERMUDA,BB-FR1,AFB160,FTP,by-d-comm1,21,anonymous,1,./KITS/out,%s.cs71d,ASCII,MULTI,,,,
BERMUDA,BB-FR1,AFB160,FTP,by-d-comm1,21,anonymous,1,./KITS/out1,%s.cs71d,ASCII,MULTI,,,,
BERMUDA,BB-FR1,AFB160,FTP,by-d-comm1,21,anonymous,1,./KITS/out2,%s.cs71d,ASCII,MULTI,,,,
BERMUDA,BB-FR1,AFB330,FTP,by-d-comm1,21,anonymous,1,./KITS/out,%s.cs71d,ASCII,,,,,
BERMUDA,BB-FR1,PYBULK_ACKOUT,FTP,by-d-comm1,21,anonymous,1,./KITS/out,%s.cs71d,ASCII,,,,,
BERMUDA,FR,PYBULK_ACKOUT,FTP,by-d-comm1,21,anonymous,1,./KITS/out,%s.cs71d,ASCII,,,,,
#<>&*$£,BB-FR2,AFB320,FTP,by-t-comm2,21,anonymous,1,./KITS/out,%s.cs71d,ASCII,,,,,
BERMUDA,B您好B-FR2,AFB320,FTP,by-t-comm2,21,anonymous,1,./KITS/out,%s.cs71d,ASCII,,,,,
BERMUDA,BB-FR2,AFB160,FTP,by-t-comm2,21,anonymous,1,./KITS/out,%s.cs71d,ASCII,,,,,
BERMUDA,BB-FR2,AFB360,FTP,by-d-comm1,21,anonymous,1,./KITS/out,%s.cs71d,ASCII,MULTI:KITS,,,,
BERMUDA,BB-FR2,AFB360,FTP,by-d-comm1,21,anonymous,1,./KITS/out1,%s.cs71d,ASCII,MULTI:KITS,,,,
BERMUDA,BB-FR2,AFB360,FTP,by-d-comm1,21,anonymous,1,./KITS/out2,%s.cs71d,ASCII,MULTI:KITS,,,,
BERMUDA,BB-FR2,AFB360,FTP,by-d-comm1,21,anonymous,1,./KITS/out,%s.%YYYYMMDD.cs71d,ASCII,,,,,
BERMUDA,BB-US1,NACHA,FTP,by-d-comm1,21,anonymous,1,./KITS/out,%s.cs71d,ASCII,,,,,
BERMUDA,BB-US2,NACHA,FTP,by-d-comm1,21,anonymous,1,./KITS/out,%s.cs71d,ASCII,,,,,
BERMUDA,BB-US3,NACHA,FTP,by-d-comm1,21,anonymous,1,./KITS/out,%s.cs71d,ASCII,,,,,
BERMUDA,INTERNAL,REPORT,FTP,by-d-comm1,21,anonymous,1,./KITS/out,%s.cs71d,ASCII,,,,,
CGA01, ,AFB320,FTP,by-d-comm1,21,anonymous,1,./KITS/out,%s.cs71d,ASCII,,,,,
CGA01,BB-FR1,AFB160,FTP,by-d-comm1,21,anonymous,1,./KITS/out,%s.cs71d,ASCII,MULTI,,,,
CGA01,BB-FR1,AFB160,FTP,by-d-comm1,21,anonymous,1,./KITS/out1,%s.cs71d,ASCII,MULTI,,,,
CGA01,BB-FR1,AFB160,FTP,by-d-comm1,21,anonymous,1,./KITS/out2,%s.cs71d,ASCII,MULTI,,,,
CGA01,BB-FR1,AFB330,FTP,by-d-comm1,21,anonymous,1,./KITS/out,%s.cs71d,ASCII,,,,,
CGA01,BB-FR1,PYBULK_ACKOUT,FTP,by-d-comm1,21,anonymous,1,./KITS/out,%s.cs71d,ASCII,,,,,
CGA01,FR,PYBULK_ACKOUT,FTP,by-d-comm1,21,anonymous,1,./KITS/out,%s.cs71d,ASCII,,,,,
#<>&*$£,BB-FR2,AFB320,FTP,by-t-comm2,21,anonymous,1,./KITS/out,%s.cs71d,ASCII,,,,,
CGA01,B您好B-FR2,AFB320,FTP,by-t-comm2,21,anonymous,1,./KITS/out,%s.cs71d,ASCII,,,,,
CGA01,BB-FR2,AFB160,FTP,by-t-comm2,21,anonymous,1,./KITS/out,%s.cs71d,ASCII,,,,,
CGA01,BB-FR2,AFB360,FTP,by-d-comm1,21,anonymous,1,./KITS/out,%s.cs71d,ASCII,MULTI:KITS,,,,
CGA01,BB-FR2,AFB360,FTP,by-d-comm1,21,anonymous,1,./KITS/out1,%s.cs71d,ASCII,MULTI:KITS,,,,
CGA01,BB-FR2,AFB360,FTP,by-d-comm1,21,anonymous,1,./KITS/out2,%s.cs71d,ASCII,MULTI:KITS,,,,
CGA01,BB-FR2,AFB360,FTP,by-d-comm1,21,anonymous,1,./KITS/out,%s.%YYYYMMDD.cs71d,ASCII,,,,,
CGA01,BB-US1,NACHA,FTP,by-d-comm1,21,anonymous,1,./KITS/out,%s.cs71d,ASCII,,,,,
CGA01,BB-US2,NACHA,FTP,by-d-comm1,21,anonymous,1,./KITS/out,%s.cs71d,ASCII,,,,,
CGA01,BB-US3,NACHA,FTP,by-d-comm1,21,anonymous,1,./KITS/out,%s.cs71d,ASCII,,,,,
CGA01,INTERNAL,REPORT,FTP,by-d-comm1,21,anonymous,1,./KITS/out,%s.cs71d,ASCII,,,,,
YYY,BB-DE1,MT101,FTP,by-d-comm1,21,anonymous,1,./YYY/out,%s.cs71d,ASCII,,,,,
ogi电@admin电,,,FTP,by-d-comm1,21,anonymous,1,./ogi电@admin电/out,%s.cs71d,ASCII,,,,,
IVM,INTERNAL,REPORT,FTP,10.42.7.9,21,anonymous,1,./IVM/out,%s.cs71d,ASCII,,,,,
KITS, ,AFB320,FTP,by-d-comm1,21,anonymous,1,./KITS/out,%s.cs71d,ASCII,,,,,
KITS,BB-FR1,AFB160,FTP,by-d-comm1,21,anonymous,1,./KITS/out,%s.cs71d,ASCII,MULTI,,,,
KITS,BB-FR1,AFB160,FTP,by-d-comm1,21,anonymous,1,./KITS/out1,%s.cs71d,ASCII,MULTI,,,,
KITS,BB-FR1,AFB160,FTP,by-d-comm1,21,anonymous,1,./KITS/out2,%s.cs71d,ASCII,MULTI,,,,
KITS,BB-FR1,AFB330,FTP,by-d-comm1,21,anonymous,1,./KITS/out,%s.cs71d,ASCII,,,,,
KITS,BB-FR1,PYBULK_ACKOUT,FTP,by-d-comm1,21,anonymous,1,./KITS/out,%s.cs71d,ASCII,,,,,
KITS,FR,PYBULK_ACKOUT,FTP,by-d-comm1,21,anonymous,1,./KITS/out,%s.cs71d,ASCII,,,,,
KITS,B您好B-FR2,AFB320,FTP,by-t-comm2,21,anonymous,1,./KITS/out,%s.cs71d,ASCII,,,,,
KITS,BB-FR2,AFB160,FTP,by-t-comm2,21,anonymous,1,./KITS/out,%s.cs71d,ASCII,,,,,
KITS,BB-FR2,AFB360,FTP,by-d-comm1,21,anonymous,1,./KITS/out,%s.cs71d,ASCII,MULTI:KITS,,,,
KITS,BB-FR2,AFB360,FTP,by-d-comm1,21,anonymous,1,./KITS/out1,%s.cs71d,ASCII,MULTI:KITS,,,,
KITS,BB-FR2,AFB360,FTP,by-d-comm1,21,anonymous,1,./KITS/out2,%s.cs71d,ASCII,MULTI:KITS,,,,
KITS,BB-FR2,AFB360,FTP,by-d-comm1,21,anonymous,1,./KITS/out,%s.%YYYYMMDD.cs71d,ASCII,,,,,
KITS,BB-US1,NACHA,FTP,by-d-comm1,21,anonymous,1,./KITS/out,%s.cs71d,ASCII,,,,,
KITS,BB-US2,NACHA,FTP,by-d-comm1,21,anonymous,1,./KITS/out,%s.cs71d,ASCII,,,,,
KITS,BB-US3,NACHA,FTP,by-d-comm1,21,anonymous,1,./KITS/out,%s.cs71d,ASCII,,,,,
KITS,INTERNAL,REPORT,FTP,by-d-comm1,21,anonymous,1,./KITS/out,%s.cs71d,ASCII,,,,,
