IBAN,Corresponding SIA code,
IT49X0102522500130109280038,451D1,
IT52O0102522500130109600891,826K7,
IT35B0102530760130109600578,826K7,
IT91K0102522500130109299977,450U9,
IT64D0102522500130109280074,450U9,
