*,NPI_BRA_00,NPI,BRANCH4,AFB160,,IP,Yes
---SCHED,09:00,23:00,555
-----IP,FTP,by-d-comm1,21,anonymous,,\npi\out\chu,,,,delete
*,NPI_BRA_00,NPI,BRANCH4,AFB160,,IP,Yes
---SCHED,09:00,23:00,555
-----IP,FTPS,by-ws-12,21,admin,,\npi\out\chu,,,,delete
