{
  "customer": "KITS", 
  "version": "0.0.2-dev", 
  "mongo": [
    {
      "model": [
        {
          "customer": "KITS", 
          "form_id": null, 
          "reset_date": {
            "second": 0, 
            "microsecond": 0, 
            "hour": 0, 
            "year": 2019, 
            "__type__": "datetime", 
            "day": 22, 
            "minute": 0, 
            "month": 9
          }, 
          "format": "BTL91", 
          "counter": 1, 
          "payor_ac_bank_code": "BANK1", 
          "date": {
            "second": 0, 
            "microsecond": 0, 
            "hour": 0, 
            "year": 2019, 
            "__type__": "datetime", 
            "day": 22, 
            "minute": 0, 
            "month": 9
          }
        }, 
        {
          "customer": "KITS", 
          "form_id": null, 
          "reset_date": {
            "second": 0, 
            "microsecond": 0, 
            "hour": 0, 
            "year": 2019, 
            "__type__": "datetime", 
            "day": 21, 
            "minute": 0, 
            "month": 9
          }, 
          "format": "CBI_XML_DD", 
          "counter": 22, 
          "payor_ac_bank_code": "BANK2", 
          "date": {
            "second": 0, 
            "microsecond": 0, 
            "hour": 0, 
            "year": 2019, 
            "__type__": "datetime", 
            "day": 21, 
            "minute": 0, 
            "month": 9
          }
        }, 
        {
          "customer": "KITS", 
          "form_id": null, 
          "reset_date": {
            "second": 0, 
            "microsecond": 0, 
            "hour": 0, 
            "year": 2019, 
            "__type__": "datetime", 
            "day": 20, 
            "minute": 0, 
            "month": 9
          }, 
          "format": "MT202", 
          "counter": 333, 
          "payor_ac_bank_code": "BANK3", 
          "date": {
            "second": 0, 
            "microsecond": 0, 
            "hour": 0, 
            "year": 2019, 
            "__type__": "datetime", 
            "day": 20, 
            "minute": 0, 
            "month": 9
          }
        }, 
        {
          "customer": "KITS", 
          "form_id": null, 
          "reset_date": {
            "second": 0, 
            "microsecond": 0, 
            "hour": 0, 
            "year": 2019, 
            "__type__": "datetime", 
            "day": 19, 
            "minute": 0, 
            "month": 9
          }, 
          "format": "NACHA", 
          "counter": 4444, 
          "payor_ac_bank_code": "BANK4", 
          "date": {
            "second": 0, 
            "microsecond": 0, 
            "hour": 0, 
            "year": 2019, 
            "__type__": "datetime", 
            "day": 19, 
            "minute": 0, 
            "month": 9
          }
        }, 
        {
          "customer": "KITS", 
          "form_id": null, 
          "reset_date": {
            "second": 0, 
            "microsecond": 0, 
            "hour": 0, 
            "year": 2019, 
            "__type__": "datetime", 
            "day": 18, 
            "minute": 0, 
            "month": 9
          }, 
          "format": "PMXML", 
          "counter": 55555, 
          "payor_ac_bank_code": "BANK5", 
          "date": {
            "second": 0, 
            "microsecond": 0, 
            "hour": 0, 
            "year": 2019, 
            "__type__": "datetime", 
            "day": 18, 
            "minute": 0, 
            "month": 9
          }
        }, 
        {
          "customer": "KITS", 
          "form_id": null, 
          "reset_date": {
            "second": 0, 
            "microsecond": 0, 
            "hour": 0, 
            "year": 2019, 
            "__type__": "datetime", 
            "day": 17, 
            "minute": 0, 
            "month": 9
          }, 
          "format": "SEPADD", 
          "counter": 666666, 
          "payor_ac_bank_code": "BANK6", 
          "date": {
            "second": 0, 
            "microsecond": 0, 
            "hour": 0, 
            "year": 2019, 
            "__type__": "datetime", 
            "day": 17, 
            "minute": 0, 
            "month": 9
          }
        }, 
        {
          "customer": "KITS", 
          "form_id": null, 
          "reset_date": {
            "second": 0, 
            "microsecond": 0, 
            "hour": 0, 
            "year": 2019, 
            "__type__": "datetime", 
            "day": 16, 
            "minute": 0, 
            "month": 9
          }, 
          "format": "XMLPAIN", 
          "counter": 7777777, 
          "payor_ac_bank_code": "BANK7", 
          "date": {
            "second": 0, 
            "microsecond": 0, 
            "hour": 0, 
            "year": 2019, 
            "__type__": "datetime", 
            "day": 16, 
            "minute": 0, 
            "month": 9
          }
        }, 
        {
          "customer": "KITS", 
          "form_id": null, 
          "reset_date": {
            "second": 0, 
            "microsecond": 0, 
            "hour": 0, 
            "year": 2019, 
            "__type__": "datetime", 
            "day": 15, 
            "minute": 0, 
            "month": 9
          }, 
          "format": "CIBC_TLV", 
          "counter": 88888888, 
          "payor_ac_bank_code": "BANK8", 
          "date": {
            "second": 0, 
            "microsecond": 0, 
            "hour": 0, 
            "year": 2019, 
            "__type__": "datetime", 
            "day": 15, 
            "minute": 0, 
            "month": 9
          }
        }, 
        {
          "customer": null, 
          "form_id": null, 
          "reset_date": {
            "second": 0, 
            "microsecond": 0, 
            "hour": 0, 
            "year": 2019, 
            "__type__": "datetime", 
            "day": 22, 
            "minute": 0, 
            "month": 9
          }, 
          "format": "BACSFF", 
          "counter": 1, 
          "payor_ac_bank_code": "BANK1", 
          "date": {
            "second": 0, 
            "microsecond": 0, 
            "hour": 0, 
            "year": 2019, 
            "__type__": "datetime", 
            "day": 22, 
            "minute": 0, 
            "month": 9
          }
        }, 
        {
          "customer": null, 
          "form_id": null, 
          "reset_date": {
            "second": 0, 
            "microsecond": 0, 
            "hour": 0, 
            "year": 2019, 
            "__type__": "datetime", 
            "day": 21, 
            "minute": 0, 
            "month": 9
          }, 
          "format": "BR24PB", 
          "counter": 22, 
          "payor_ac_bank_code": "BANK2", 
          "date": {
            "second": 0, 
            "microsecond": 0, 
            "hour": 0, 
            "year": 2019, 
            "__type__": "datetime", 
            "day": 21, 
            "minute": 0, 
            "month": 9
          }
        }, 
        {
          "customer": null, 
          "form_id": null, 
          "reset_date": {
            "second": 0, 
            "microsecond": 0, 
            "hour": 0, 
            "year": 2019, 
            "__type__": "datetime", 
            "day": 20, 
            "minute": 0, 
            "month": 9
          }, 
          "format": "BWIFF", 
          "counter": 333, 
          "payor_ac_bank_code": "BANK3", 
          "date": {
            "second": 0, 
            "microsecond": 0, 
            "hour": 0, 
            "year": 2019, 
            "__type__": "datetime", 
            "day": 20, 
            "minute": 0, 
            "month": 9
          }
        }, 
        {
          "customer": null, 
          "form_id": null, 
          "reset_date": {
            "second": 0, 
            "microsecond": 0, 
            "hour": 0, 
            "year": 2019, 
            "__type__": "datetime", 
            "day": 19, 
            "minute": 0, 
            "month": 9
          }, 
          "format": "CBI_XML_CT", 
          "counter": 4444, 
          "payor_ac_bank_code": "BANK4", 
          "date": {
            "second": 0, 
            "microsecond": 0, 
            "hour": 0, 
            "year": 2019, 
            "__type__": "datetime", 
            "day": 19, 
            "minute": 0, 
            "month": 9
          }
        }, 
        {
          "customer": null, 
          "form_id": null, 
          "reset_date": {
            "second": 0, 
            "microsecond": 0, 
            "hour": 0, 
            "year": 2019, 
            "__type__": "datetime", 
            "day": 18, 
            "minute": 0, 
            "month": 9
          }, 
          "format": "DE_SEPACT", 
          "counter": 55555, 
          "payor_ac_bank_code": "BANK5", 
          "date": {
            "second": 0, 
            "microsecond": 0, 
            "hour": 0, 
            "year": 2019, 
            "__type__": "datetime", 
            "day": 18, 
            "minute": 0, 
            "month": 9
          }
        }, 
        {
          "customer": null, 
          "form_id": null, 
          "reset_date": {
            "second": 0, 
            "microsecond": 0, 
            "hour": 0, 
            "year": 2019, 
            "__type__": "datetime", 
            "day": 17, 
            "minute": 0, 
            "month": 9
          }, 
          "format": "EDI820_HUNTINGTON", 
          "counter": 666666, 
          "payor_ac_bank_code": "BANK6", 
          "date": {
            "second": 0, 
            "microsecond": 0, 
            "hour": 0, 
            "year": 2019, 
            "__type__": "datetime", 
            "day": 17, 
            "minute": 0, 
            "month": 9
          }
        }, 
        {
          "customer": null, 
          "form_id": null, 
          "reset_date": {
            "second": 0, 
            "microsecond": 0, 
            "hour": 0, 
            "year": 2019, 
            "__type__": "datetime", 
            "day": 16, 
            "minute": 0, 
            "month": 9
          }, 
          "format": "EDI820_RBC", 
          "counter": 7777777, 
          "payor_ac_bank_code": "BANK7", 
          "date": {
            "second": 0, 
            "microsecond": 0, 
            "hour": 0, 
            "year": 2019, 
            "__type__": "datetime", 
            "day": 16, 
            "minute": 0, 
            "month": 9
          }
        }, 
        {
          "customer": null, 
          "form_id": null, 
          "reset_date": {
            "second": 0, 
            "microsecond": 0, 
            "hour": 0, 
            "year": 2019, 
            "__type__": "datetime", 
            "day": 15, 
            "minute": 0, 
            "month": 9
          }, 
          "format": "EDI820_TD", 
          "counter": 88888888, 
          "payor_ac_bank_code": "BANK8", 
          "date": {
            "second": 0, 
            "microsecond": 0, 
            "hour": 0, 
            "year": 2019, 
            "__type__": "datetime", 
            "day": 15, 
            "minute": 0, 
            "month": 9
          }
        }, 
        {
          "customer": null, 
          "form_id": null, 
          "reset_date": {
            "second": 0, 
            "microsecond": 0, 
            "hour": 0, 
            "year": 2019, 
            "__type__": "datetime", 
            "day": 14, 
            "minute": 0, 
            "month": 9
          }, 
          "format": "MT103", 
          "counter": 999999999, 
          "payor_ac_bank_code": "BANK9", 
          "date": {
            "second": 0, 
            "microsecond": 0, 
            "hour": 0, 
            "year": 2019, 
            "__type__": "datetime", 
            "day": 14, 
            "minute": 0, 
            "month": 9
          }
        }, 
        {
          "customer": null, 
          "form_id": null, 
          "reset_date": {
            "second": 0, 
            "microsecond": 0, 
            "hour": 0, 
            "year": 2019, 
            "__type__": "datetime", 
            "day": 13, 
            "minute": 0, 
            "month": 9
          }, 
          "format": "SEPACT", 
          "counter": 49, 
          "payor_ac_bank_code": "BANK10", 
          "date": {
            "second": 0, 
            "microsecond": 0, 
            "hour": 0, 
            "year": 2019, 
            "__type__": "datetime", 
            "day": 13, 
            "minute": 0, 
            "month": 9
          }
        }, 
        {
          "customer": null, 
          "form_id": null, 
          "reset_date": {
            "second": 0, 
            "microsecond": 0, 
            "hour": 0, 
            "year": 2019, 
            "__type__": "datetime", 
            "day": 12, 
            "minute": 0, 
            "month": 9
          }, 
          "format": "CIBC_TLV", 
          "counter": 115, 
          "payor_ac_bank_code": "BANK11", 
          "date": {
            "second": 0, 
            "microsecond": 0, 
            "hour": 0, 
            "year": 2019, 
            "__type__": "datetime", 
            "day": 12, 
            "minute": 0, 
            "month": 9
          }
        }
      ], 
      "collection": "foCounters"
    }, 
    {
      "model": [
        {
          "customer": "KITS", 
          "country": "United States", 
          "company": "Kyriba", 
          "counter": 22, 
          "payment_type": "SALA", 
          "connect_id": "CONNECTID_01", 
          "batch_codes": [
            "LA01"
          ], 
          "net_id": "NETID_01"
        }, 
        {
          "customer": "KITS", 
          "country": "United States", 
          "company": "Kyriba", 
          "counter": 1, 
          "payment_type": "SALA", 
          "connect_id": "CONNECTID_01", 
          "batch_codes": [
            "LA01"
          ], 
          "net_id": "NETID_01"
        }, 
        {
          "customer": "KITS", 
          "country": "United States", 
          "company": "Kyriba", 
          "counter": 4444, 
          "payment_type": "SALA", 
          "connect_id": "CONNECTID_01", 
          "batch_codes": [
            "LA01"
          ], 
          "net_id": "NETID_01"
        }, 
        {
          "customer": "KITS", 
          "country": "United States", 
          "company": "Kyriba", 
          "counter": 333, 
          "payment_type": "SALA", 
          "connect_id": "CONNECTID_01", 
          "batch_codes": [
            "LA01"
          ], 
          "net_id": "NETID_01"
        }, 
        {
          "customer": "KITS", 
          "country": "United States", 
          "company": "Kyriba", 
          "counter": 55555, 
          "payment_type": "SALA", 
          "connect_id": "CONNECTID_01", 
          "batch_codes": [
            "LA01"
          ], 
          "net_id": "NETID_01"
        }, 
        {
          "customer": "KITS", 
          "country": "United States", 
          "company": "Kyriba", 
          "counter": 7777777, 
          "payment_type": "SALA", 
          "connect_id": "CONNECTID_01", 
          "batch_codes": [
            "LA01"
          ], 
          "net_id": "NETID_01"
        }, 
        {
          "customer": "KITS", 
          "country": "United States", 
          "company": "Kyriba", 
          "counter": 666666, 
          "payment_type": "SALA", 
          "connect_id": "CONNECTID_01", 
          "batch_codes": [
            "LA01"
          ], 
          "net_id": "NETID_01"
        }
      ], 
      "collection": "foCounters.HSBC"
    }
  ]
}