314890001000180755620;05;0612
118990012000085101445;05;0305
118990012000085212945;05;0305
118990012000085101445;13;0302
118990012000085212945;13;0302
118990012000085101445;99;0302
118990012000085212945;99;0302
300040080400022524818;18;0558
300040080400022525594;18;0558
300040080400022525109;18;0558
300760202010481200200;18;0005
300760202010668800200;18;0005
300030317500020124449;18;0790
300030317500020263973;18;0790
300030317500020210495;18;0790
300030067100020559369;18;0790
300030317500020124449;21;0114
300030317500020263973;21;0114
300030317500020210495;21;0114
300030067100020559369;21;0114
300030317500020124449;21;0287
300030317500020263973;21;0287
300030317500020210495;21;0287
300030067100020559369;21;0287
