NBOE;28
NBRF;17
NCHG;17
NCHK;28
NCLR;28
NCOL;18
NCOM;17
NDCR;16
NDIV;19
NEQA;zz
NECK;28
NFEX;04
NINT;26
NINT;27
NLBX;zz
NLDP;zz
NMSC;zz
NRTI;19
NSEC;19
NSTO;29
NTCK;28
NTRF;19
NVDA;zz
