*,12_12_00,12,12,12,12,WEBENGINE,Debug
---SCHED,12:00,19:00,12
*,AKA_NOB_00,AKA,NOBANK,,,IP,No
---SCHED,0:00,23:59,1
-----IP,FTP,by-d-comm1,21,anonymous,12345678,/AKA/in_getipsched,.*
*,AKA_NOB_01,AKA,NOBANK,BAI,*****TEST*****,IP,No
*,AMZ_DB_00,AMZN206,DB,BAI,in BAC - new DBDC,IP,No
---SCHED,00:01,23:59,99
-----IP,FTPS,ftp.dbdc.db.com,9005,kyriba-us,kyriba-us,../kyriba-us,.*,BIN,,DELETE,,,file://by-ws-14/Public/ftp1.pem
*,AST_BB-_00,AST,BB-FR1,AFB160,,IP,No
---SCHED,09:00,23:00,10
*,AST_BB-_01,AST,BB-FR2,MT940,,IP,Yes
---SCHED,09:00,23:00,10
-----IP,FTPS,by-ws-35,21,admin,1,\AST\test,,,,Delete
*,AST_BB-_02,AST,BB-FR3,mt101,,IP,No
---SCHED,09:00,23:00,10
-----IP,SFTP,by-d-comm1,22,anonymous,12345678,\AST\SFTP,,,,Delete
*,AST_BB-_03,AST,BB-FR4,swiftnetfin,,IP,No
---SCHED,09:00,23:00,10
-----IP,SFTP,by-d-comm1,22,anonymous,12345678,\AST\SFTP1,,,,Delete
*,AST_BB-_04,AST,BB-FR5,AFB161,,IP,No
---SCHED,09:00,23:00,10
-----IP,FTP,by-d-comm1,21,anonymous,12345678,\AST\test,,,,Delete
*,AST_T&#_00,AST,T&#209;&#165,AFB162,,IP,No
---SCHED,09:00,23:00,10
*,BBB_BBB_00,BBB,BBB,bbb,,IP,No
*,DLA_5-B_00,DLA,5-BB-FR,MT940,,IP,Yes
---SCHED,08:00,20:00,50
-----IP,SFTP,10.0.35.105,6789,DLA,DLA,,,,,,,,C:\Program Files\serts\priv_key.rsa,pass
*,DLA_5-B_01,DLA,5-BB-FR,BAI,BAItest,IP,No
---SCHED,08:00,20:00,5
-----IP,FTP,by-d-comm1,21,anonymous,,./DLA/in01/
*,EMA_BB-_00,EMA,BB-FR,swiftnetfin,,IP,No
---SCHED,10:00,21:00,555
*,EMA_BB-_01,EMA,BB-FR,mt101,,IP,No
---SCHED,11:00,19:00,44
-----IP,SFTP,by-t-comm1,22,anonymous,123,./EMA/in04,[a-zA-Z0-9]+
*,ESI_BB-_00,ESI,BB-DE1,MT940,,IP,Yes
---SCHED,09:00,23:00,50
-----IP,FTPS,by-d-comm1,21,anonymous,,\ESI\IN_01,.*,,,,,,,,,on
*,GIV_BAN_00,GIV,BANK1,mt940,huitamswim,FTX,No
-------FTX,hui11,333,333
*,KDR_BB-_00,KDR,BB-DE1,,,IP,Yes
---SCHED,09:00,23:00,10
-----IP,SFTP,by-d-comm1,22,anonymous,12345678,\KDR\SFTP,,,,Delete
*,VKA_BB-_00,VKA,BB-DE1,ACMTFR,,IP,No
---SCHED,06:00,21:00,10
-----IP,FTP,by-t-comm2,21,anonymous,12345678,\VKA\in_02,.*,,,,,,,INTERNAL
*,VKA_BB-_01,VKA,BB-SK1,ACK820,,IP,No
---SCHED,09:00,20:00,555
-----IP,FTP,by-t-comm2,21,anonymous,,\VKA\in_02,.*
*,VKA_BB-_02,VKA,BB-TW1....1122,MT940,,IP,No
---SCHED,06:00,21:00,555
-----IP,SFTP,by-t-comm2,22,anonymous,1,.\VKA\in04,.*,,,Delete
*,VKA_BB-_03,VKA,BB-SK1,ACKEDI,,IP,No
---SCHED,09:00,21:00,555
-----IP,FTP,by-t-comm2,21,anonymous,,\VKA\in_02,.*
*,VKA_VKA_00,VKAVKA,VKAVKA,vkavka,,IP,No
---SCHED,09:00,21:00,555
-----IP,FTP,by-t-comm2,21,anonymous,,\VKA\in_02,.*
