*,AST_ASD_00,AST,ASD,AFB120,,IP,Yes
---SCHED,12:00,23:00,10
-----IP,FTP,by-d-comm1,21,anonymous,12345678,\AST\test1,,,,Delete
*,AST_B1_00,AST,B1,MT940,,IP,Yes
---SCHED,09:00,23:00,10
-----IP,FTP,by-d-comm1,21,anonymous,12345687,\AST\test1,,,,Delete
*,AST_BB-_00,AST,ASD,ACK820,,IP,Yes
---SCHED,09:00,23:00,10
-----IP,SFTP,by-d-comm1,21,anonymous,&#9679;&#9679;&#9679;&#9679;&#9679;&#9679;&#9,\AST\test,,,,Delete
*,AST_BB-_02,AST,BB-FR1,AFB161,,IP,Yes
---SCHED,09:00,23:00,10
-----IP,SFTP,by-d-comm1,22,anonymous,12345678,\AST\SFTP,,,,Delete
*,AST_BB-_03,AST,BB-FR1,AFB160,,IP,Yes
---SCHED,09:00,23:00,10
-----IP,SFTP,by-d-comm1,22,anonymous,12345678,\AST\SFTP1,,,,Delete
*,VKA_BB-_00,VKA,BB-SK1,ACK820,,IP,Yes
---SCHED,09:00,20:00,555
-----IP,FTP,by-d-comm1,21,anonymous,12345678,\VKA\test,,,,Delete
*,VKA_BB-_02,VKA,BB-TW1,MT940,,IP,No
---SCHED,06:00,21:00,555
-----IP,SFTP,by-d-comm1,22,anonymous,12345678,\VKA\in02,.*
*,VKA_VKA_00,VKAVKA,VKAVKA,vkavka,,IP,No
---SCHED,06:00,21:00,555
-----IP,SFTP,by-d-comm1,22,anonymous,12345678,\VKA\in02,.*
