Customer(M),Company(M),HSBC ID(M),Country(M),Code Counter(M),Codes(M)
KITS,desc1.COMP-FR1,othid.BB-FR1iss,HK,1,001,002,003
KITS,desc1.COMP-FR1,othid.BB-FR1iss,KR,2,101,102,103
KITS,desc1.COMP-FR1,othid.BB-FR1iss,SG,2,201,202,203
KITS,desc1.COMP-FR1,othid.BB-FR1iss,CN,2,301,302,303
KITS,desc1.COMP-FR1,othid.BB-FR1iss,MY,2,401,402,403
KITS,desc1.COMP-FR1,othid.BB-FR1iss,AU,1,501,502,503
NPI,Korea,45,KR,2,K01,K02,K03,K04
CMP11,Hermes Korea,ABC12345678,KR,1,K01,K02,K03,K04
EMA,COMP-FR,otherID-BB-FR,SALA,FR,1,SA01
EMA,COMP-FR,otherID-BB-FR,SUPP,FR,1,LA01