Customer,Company,HSBC Connect Customer ID,HSBC net Customer ID,Country,0,HSBC_Set_For_Batch_Codes
KDR,CorpIDCd-FR1,HKHBAPGHK502046536,HKHBAPGHK502046536,,0
KDR,COMP-TH1COrpId,HKHBAPGHK502046536,HKHBAPGHK502046536,,0
KDR,COMP-TW1CorpID,HKHBAPGHK502046536,HKHBAPGHK502046536,,0
KDR,,ABC00010001,,,0
NPI,,HKHBAPGHK502046536,HKHBAPGHK502046536,,0
NPI,85526,HKHBAPGHK502046536,HKHBAPGHK502046536,,0
NPI,56988,HKHBAPGHK502046536,HKHBAPGHK502046536,,0
NPI,RUSIANCorpID,HKHBAPGHK502046536,HKHBAPGHK502046536,,0
CMP11,,ABC12345678,,,0
TVO,COMP-FR1,othid.BB-FR1iss,,HK,1,001 002 003
TVO,COMP-FR1,othid.BB-FR1iss,,KR,2,101 102 103
TVO,COMP-FR1,othid.BB-FR1iss,,SG,3,201 202 203
TVO,COMP-FR1,othid.BB-FR1iss,,CN,3,301 302 303
TVO,COMP-FR1,othid.BB-FR1iss,,MY,1,401 402 403
TVO,COMP-FR1,othid.BB-FR1iss,,AU,2,501 502 503
TVO,,HKHBAPGHK502046536,HKHBAPGHK502046536,,0
EMA,COMP-FR,otherID-BB-FR,SALA,FR,1,SA01
EMA,COMP-FR,otherID-BB-FR,SUPP,FR,1,LA01
EMA,COMP-HK,otherID-BB-HK,,HK,1,LA01,SUPP
EMA,COMP-HK,otherID-BB-HK,,HK,1,SA01,SALA
DLA,HKCOMP,otherIDBBHK,,HK,2,001 002 003
EMA,COMP-SAR,otherID-cs,,SA,1,SA01,SALA
AST,COMP-FR1,othid.BB-FR1iss,,HK,1,001 002 003
AST,COMP-FR1,othid.BB-FR1iss,,KR,2,101 102 103
AST,COMP-FR1,othid.BB-FR1iss,,SG,3,201 202 203
AST,COMP-FR1,othid.BB-FR1iss,,CN,3,301 302 303
AST,COMP-FR1,othid.BB-FR1iss,,MY,1,401 402 403
AST,COMP-FR1,othid.BB-FR1iss,,AU,2,501 502 503
BERMUDA,COMP-FR1,othid.BB-FR1iss,,HK,1,001 002 003
BERMUDA,COMP-FR1,othid.BB-FR1iss,,KR,2,101 102 103
BERMUDA,COMP-FR1,othid.BB-FR1iss,,SG,3,201 202 203
BERMUDA,COMP-FR1,othid.BB-FR1iss,,CN,3,301 302 303
BERMUDA,COMP-FR1,othid.BB-FR1iss,,MY,1,401 402 403
BERMUDA,COMP-FR1,othid.BB-FR1iss,,AU,2,501 502 503
INTEGRATION,COMP-FR1,othid.BB-FR1iss,,HK,1,001 002 003
INTEGRATION,COMP-FR1,othid.BB-FR1iss,,KR,2,101 102 103
INTEGRATION,COMP-FR1,othid.BB-FR1iss,,SG,3,201 202 203
INTEGRATION,COMP-FR1,othid.BB-FR1iss,,CN,3,301 302 303
INTEGRATION,COMP-FR1,othid.BB-FR1iss,,MY,1,401 402 403
INTEGRATION,COMP-FR1,othid.BB-FR1iss,,AU,2,501 502 503
FAKITS,COMP-FR1,othid.BB-FR1iss,,HK,1,001 002 003
FAKITS,COMP-FR1,othid.BB-FR1iss,,KR,2,101 102 103
FAKITS,COMP-FR1,othid.BB-FR1iss,,SG,3,201 202 203
FAKITS,COMP-FR1,othid.BB-FR1iss,,CN,3,301 302 303
FAKITS,COMP-FR1,othid.BB-FR1iss,,MY,1,401 402 403
FAKITS,COMP-FR1,othid.BB-FR1iss,,AU,2,501 502 503
FASMOKE,COMP-FR1,othid.BB-FR1iss,,HK,1,001 002 003
FASMOKE,COMP-FR1,othid.BB-FR1iss,,KR,2,101 102 103
FASMOKE,COMP-FR1,othid.BB-FR1iss,,SG,3,201 202 203
FASMOKE,COMP-FR1,othid.BB-FR1iss,,CN,3,301 302 303
FASMOKE,COMP-FR1,othid.BB-FR1iss,,MY,1,401 402 403
FASMOKE,COMP-FR1,othid.BB-FR1iss,,AU,2,501 502 503
CGA01,COMP-FR1,othid.BB-FR1iss,,HK,1,001 002 003
CGA01,COMP-FR1,othid.BB-FR1iss,,KR,2,101 102 103
CGA01,COMP-FR1,othid.BB-FR1iss,,SG,3,201 202 203
CGA01,COMP-FR1,othid.BB-FR1iss,,CN,3,301 302 303
CGA01,COMP-FR1,othid.BB-FR1iss,,MY,1,401 402 403
CGA01,COMP-FR1,othid.BB-FR1iss,,AU,2,501 502 503
