#request type,KyribaCode,OperationCode
camt.xxx.cfonb120,AFB120,
camt.xxx.cfonb240,OC240,21
camt.xxx.cfonb240,OC240,23
camt.xxx.cfonb240,OC240,81
camt.fin.mt940,MT940,
camt.fin.mt942,MT942,
camt.fin.XMLPAIN,XMLPAIN,
camt.fin.mt101,MT101,
camt.fin.mt101,MT101,