Customer,statement bank+branch code," ""Idoc bank+branch code"""
FERRERO,9903999999,022,
AST,9903999999,022,
BERMUDA,9903999999,022,
FAKITS,9903999999,022,
FASMOKE,9903999999,022,
INTEGRATION,9903999999,022,
CGA01,9903999999,022,
