"start time","end time","Client","Bank","Format","User","Passwd","Statement type", "Process Type","c1","c2","c3","c4","c5","c6","c7","c8","c9","c1",
08:00,19:00,CMP11,BANK1,Afb120,toto,passwordToto,currentday,,aa,bb,cc,dd,ee,ff,gg,hh
08:00,19:00,CMP12,BANK1,Afb120,toto,passwordToto,currentday,PREV,aa,bb,cc,dd,ee,ff,gg,hh
08:00,19:00,CMP13,BANK1,Afb120,toto,passwordToto,previousday,,aa,bb,cc,dd,ee,ff,gg,hh
08:00,19:00,KITS,BANK1,Afb120,toto,passwordToto,currentday,,aa,bb,cc,dd,ee,ff,gg,hh
08:00,19:00,AST,BANK1,Afb120,toto,passwordToto,currentday,,aa,bb,cc,dd,ee,ff,gg,hh
08:00,19:00,BERMUDA,BANK1,Afb120,toto,passwordToto,currentday,,aa,bb,cc,dd,ee,ff,gg,hh
08:00,19:00,FAKITS,BANK1,Afb120,toto,passwordToto,currentday,,aa,bb,cc,dd,ee,ff,gg,hh
08:00,19:00,FASMOKE,BANK1,Afb120,toto,passwordToto,currentday,,aa,bb,cc,dd,ee,ff,gg,hh
08:00,19:00,INTEGRATION,BANK1,Afb120,toto,passwordToto,currentday,,aa,bb,cc,dd,ee,ff,gg,hh
08:00,19:00,CGA01,BANK1,Afb120,toto,passwordToto,currentday,,aa,bb,cc,dd,ee,ff,gg,hh
