{
  "customer": "KITS", 
  "version": "0.0.2-dev", 
  "fs": [ 
    {
      "model": "12790", 
      "filePath": "Tables\\JPMaccessNbrBatch.txt"
    }, 
    {
      "model": "39821,1108", 
      "filePath": "Tables\\HSBCTransCounter.txt"
    }, 
    {
      "model": "11110,1542886011", 
      "filePath": "Tables\\SCOTIA_MXCounter.txt"
    }, 
    {
      "model": [
        {
          "DATE": "20170503", 
          "CUSTOMER": "", 
          "COUNTER": "39", 
          "RESET_DATE": "20140226", 
          "FORMAT": "BR24PT"
        }, 
        {
          "DATE": "20151221", 
          "CUSTOMER": "", 
          "COUNTER": "4", 
          "RESET_DATE": "20151221", 
          "FORMAT": "BR24PC"
        }, 
        {
          "CUSTOMER": "", 
          "PAYOR_AC_BANK_CODE": "BANK-FR", 
          "FORM_ID": "", 
          "RESET_DATE": "20181122", 
          "FORMAT": "BR24", 
          "DATE": "20181122", 
          "COUNTER": "39"
        }, 
        {
          "CUSTOMER": "", 
          "PAYOR_AC_BANK_CODE": "BANK-BR", 
          "FORM_ID": "", 
          "RESET_DATE": "20190128", 
          "FORMAT": "BR24", 
          "DATE": "20190130", 
          "COUNTER": "49"
        }
      ], 
      "filePath": "Tables\\TransNbrCounterBR24.txt"
    }, 
    {
      "model": "33714,1205", 
      "filePath": "Tables\\Edi820NorthernTrustCounter.txt"
    }, 
    {
      "model": "91824", 
      "filePath": "Tables\\Edi820TdTransNbr.txt"
    }, 
    {
      "model": "6577", 
      "filePath": "Tables\\Edi820RBCTransNbr.txt"
    }, 
    {
      "model": [
        {
          "CUSTOMER": "", 
          "FORM_ID": "0242642990543826974488", 
          "RESET_DATE": "20160516", 
          "FORMAT": "CIBC_TLV", 
          "DATE": "20160516", 
          "COUNTER": "5017"
        }
      ], 
      "filePath": "Tables\\TransNbrCounterFormatted.txt"
    }
  ]
}