*,KDR_BB-_00,KDR,BB-DE1,MT940,,IP,No
---SCHED,06:00,23:30,10
-----IP,FTPS,10.0.34.40,21,Admin,12345678,ftps_test,.*,,,,,,H:\data\certificate.crt
*,NPI_BRA_00,NPI,BRANCH4,AFB160,,IP,Yes
---SCHED,09:00,23:00,555
-----IP,FTP,by-d-comm1,21,anonymous,,\npi\out\chu,,,,delete
*,NPI_BRA_01,NPI,BRANCH4,AFB160,,IP,No
---SCHED,09:00,23:00,555
-----IP,FTPS,by-d-comm1,21,anonymous,1,\npi\out\chu,,,,delete
*,TVO_BB-_00,TVO,BB-IT1,ACK820,,IP,No
---SCHED,09:00,23:00,555
-----IP,FTP,by-d-comm1,21,anonymous,1,\TVO\test,,,,Delete
*,VKA_BB-_00,VKA,BB-SK1,ACK820,,IP,No
---SCHED,09:00,20:00,555
-----IP,FTP,by-d-comm1,21,anonymous,12345678,\VKA\in02,.*
*,VKA_BB-_01,VKA,BB-SK1,SKA,,IP,No
---SCHED,09:00,20:00,555
-----IP,FTP,by-d-comm1,21,anonymous,12345678,\VKA\in02,.*
