<?xml version="1.0" encoding="windows-1252" standalone="yes" ?>
<Document xmlns="urn:iso:std:iso:20022:tech:xsd:pain.002.001.02">
	<pain.002.001.02>
		<GrpHdr>
			<MsgId>5b7ae6c1c0ca7879b53e5279779xxxx</MsgId>
			<CreDtTm>2013-01-11T16:30:25</CreDtTm>
			<InitgPty>
				<Nm>BNPAFRPP</Nm>
			</InitgPty>
		</GrpHdr>
		<OrgnlGrpInfAndSts>
			<OrgnlMsgId>DOMTFR10039</OrgnlMsgId>
			<OrgnlMsgNmId>pain.xxx.cfonb160.dct</OrgnlMsgNmId>
			<GrpSts>RJCT</GrpSts>
	
		</OrgnlGrpInfAndSts>
		
		
		<OrgnlPmtInfAndSts>
		
		
				<OrgnlCtrlSum>200</OrgnlCtrlSum>
		
				<OrgnlNbOfTxs>1</OrgnlNbOfTxs>
				
				
				<StsRsnInf>
					<StsRsn>
						<Cd>AC01</Cd>
					</StsRsn>
					<AddtlInf>ADDINFOFORPAYMENT</AddtlInf>
				</StsRsnInf>
				
				
				<TxInfAndSts>
					<TxSts>
					</TxSts>
					
					<OrgnlInstrId>TRANS1
					</OrgnlInstrId>
					<Amt>9999
					</Amt>
					
					<StsRsnInf>
						<StsRsn>
							<Cd>AC02</Cd>
						</StsRsn>
						<AddtlInf>ADDINFOFORTRANSACTION</AddtlInf>
					</StsRsnInf>
					
				</TxInfAndSts>
				
				
				
		</OrgnlPmtInfAndSts>
		
		
	</pain.002.001.02>
</Document>




